// Vitest Snapshot v1, https://vitest.dev/guide/snapshot.html

exports[`ai status > given ai is not running > should respond with a proper body 1`] = `
{
  "running": false,
}
`;

exports[`ai status > given ai is running > should respond with a proper body 1`] = `
{
  "running": true,
}
`;
